<svg width="71" height="71" viewBox="0 0 71 71" fill="none" xmlns="http://www.w3.org/2000/svg">
<path d="M35.9626 51.6301C40.2114 51.6301 43.6558 48.1857 43.6558 43.9369C43.6558 39.6881 40.2114 36.2438 35.9626 36.2438C31.7138 36.2438 28.2695 39.6881 28.2695 43.9369C28.2695 48.1857 31.7138 51.6301 35.9626 51.6301Z" fill="white"/>
<path fill-rule="evenodd" clip-rule="evenodd" d="M22.836 29.9494C22.8434 29.9494 22.8493 29.9435 22.8493 29.9361V17.3606C22.8493 13.6912 25.824 10.7165 29.4934 10.7165H42.4318C46.1013 10.7165 49.0759 13.6912 49.0759 17.3606V29.9365C49.0759 29.9436 49.0817 29.9494 49.0888 29.9494C52.6546 29.9494 55.5452 32.84 55.5452 36.4057V50.7764C55.5452 54.9173 52.1883 58.2742 48.0474 58.2742H23.7029C19.5621 58.2742 16.2052 54.9173 16.2052 50.7764V36.5802C16.2052 32.9181 19.1739 29.9494 22.836 29.9494ZM41.9073 29.5997H29.8431V20.1581C29.8431 18.8062 30.939 17.7103 32.2909 17.7103H39.4595C40.8114 17.7103 41.9073 18.8062 41.9073 20.1581V29.5997ZM35.9626 51.6301C40.2114 51.6301 43.6558 48.1857 43.6558 43.9369C43.6558 39.6881 40.2114 36.2438 35.9626 36.2438C31.7138 36.2438 28.2695 39.6881 28.2695 43.9369C28.2695 48.1857 31.7138 51.6301 35.9626 51.6301Z" fill="white"/>
<path d="M29.8431 29.5997H28.4443V30.9985H29.8431V29.5997ZM41.9073 29.5997V30.9985H43.3061V29.5997H41.9073ZM24.248 29.9361V17.3606H21.4505V29.9361H24.248ZM29.4934 12.1153H42.4318V9.31777H29.4934V12.1153ZM47.6772 17.3606V29.9365H50.4747V17.3606H47.6772ZM54.1464 36.4057V50.7764H56.9439V36.4057H54.1464ZM48.0474 56.8754H23.7029V59.6729H48.0474V56.8754ZM17.604 50.7764V36.5802H14.8065V50.7764H17.604ZM29.8431 30.9985H41.9073V28.2009H29.8431V30.9985ZM43.3061 29.5997V20.1581H40.5086V29.5997H43.3061ZM39.4595 16.3115H32.2909V19.109H39.4595V16.3115ZM28.4443 20.1581V29.5997H31.2418V20.1581H28.4443ZM42.257 43.9369C42.257 47.4132 39.4389 50.2313 35.9626 50.2313V53.0288C40.9839 53.0288 45.0545 48.9582 45.0545 43.9369H42.257ZM35.9626 50.2313C32.4863 50.2313 29.6682 47.4132 29.6682 43.9369H26.8707C26.8707 48.9582 30.9413 53.0288 35.9626 53.0288V50.2313ZM29.6682 43.9369C29.6682 40.4606 32.4863 37.6425 35.9626 37.6425V34.845C30.9413 34.845 26.8707 38.9156 26.8707 43.9369H29.6682ZM35.9626 37.6425C39.4389 37.6425 42.257 40.4606 42.257 43.9369H45.0545C45.0545 38.9156 40.9839 34.845 35.9626 34.845V37.6425ZM43.3061 20.1581C43.3061 18.0337 41.5839 16.3115 39.4595 16.3115V19.109C40.0389 19.109 40.5086 19.5787 40.5086 20.1581H43.3061ZM17.604 36.5802C17.604 33.6906 19.9464 31.3481 22.836 31.3481V28.5506C18.4014 28.5506 14.8065 32.1456 14.8065 36.5802H17.604ZM23.7029 56.8754C20.3346 56.8754 17.604 54.1448 17.604 50.7764H14.8065C14.8065 55.6898 18.7896 59.6729 23.7029 59.6729V56.8754ZM54.1464 50.7764C54.1464 54.1448 51.4158 56.8754 48.0474 56.8754V59.6729C52.9608 59.6729 56.9439 55.6898 56.9439 50.7764H54.1464ZM49.0888 31.3481C51.8821 31.3481 54.1464 33.6125 54.1464 36.4057H56.9439C56.9439 32.0675 53.4271 28.5506 49.0888 28.5506V31.3481ZM47.6772 29.9365C47.6772 30.7161 48.3092 31.3481 49.0888 31.3481V28.5506C49.8542 28.5506 50.4747 29.1711 50.4747 29.9365H47.6772ZM42.4318 12.1153C45.3288 12.1153 47.6772 14.4637 47.6772 17.3606H50.4747C50.4747 12.9187 46.8738 9.31777 42.4318 9.31777V12.1153ZM24.248 17.3606C24.248 14.4637 26.5965 12.1153 29.4934 12.1153V9.31777C25.0514 9.31777 21.4505 12.9187 21.4505 17.3606H24.248ZM32.2909 16.3115C30.1665 16.3115 28.4443 18.0337 28.4443 20.1581H31.2418C31.2418 19.5787 31.7115 19.109 32.2909 19.109V16.3115ZM21.4505 29.9361C21.4505 29.1709 22.0709 28.5506 22.836 28.5506V31.3481C23.6158 31.3481 24.248 30.716 24.248 29.9361H21.4505Z" fill="#0C0C0C"/>
</svg>
