<svg width="71" height="71" viewBox="0 0 71 71" fill="none" xmlns="http://www.w3.org/2000/svg">
<path d="M54.1086 52.3797H52.3236V45.6247C52.3236 41.0047 50.5386 38.2047 48.0536 36.4897C47.5286 36.8047 46.9686 37.0847 46.3386 37.3297C45.2186 37.7847 44.0636 38.0997 42.9086 38.3447C43.3286 38.4497 43.7486 38.5897 44.1336 38.7297C46.0236 39.4647 47.2486 40.6197 47.9136 42.2647L24.3586 41.3197L22.7836 41.2497C23.4836 40.1647 24.5686 39.3247 26.0036 38.7647C28.8036 37.6797 32.4436 37.6797 35.1386 37.6797C40.8086 37.6797 52.3236 37.5747 52.3236 25.8497V19.0597H54.1086C54.5986 19.0597 54.9136 18.5347 54.6686 18.0797L50.9586 11.6747C50.8186 11.4647 50.6086 11.3597 50.3986 11.3597C50.1886 11.3597 49.9786 11.4647 49.8386 11.6747L46.1286 18.0797C45.8836 18.4997 46.1986 19.0597 46.6886 19.0597H48.4736V22.3147L47.1786 22.2447L21.6986 21.1597V19.0247H23.4836C23.9736 19.0247 24.2886 18.4997 24.0436 18.0447L20.2986 11.6747C20.0536 11.2547 19.4236 11.2547 19.1786 11.6747L15.4686 18.1147C15.2236 18.5347 15.5386 19.0947 16.0286 19.0947H17.8136V25.8497C17.8136 30.4697 19.5986 33.2697 22.0836 34.9847C22.6086 34.6697 23.1686 34.3897 23.7986 34.1447C24.9186 33.6897 26.0736 33.3747 27.2286 33.1297C26.8086 33.0247 26.3886 32.8847 26.0036 32.7447C24.2186 32.0447 23.0286 30.9597 22.3286 29.4197L45.5336 30.3997L47.1786 30.4697C46.4786 31.4497 45.4636 32.1847 44.0986 32.7447C41.2986 33.8297 37.6586 33.8297 34.9636 33.8297C29.2936 33.8297 17.7786 33.9347 17.7786 45.6597V52.4147H15.9936C15.5036 52.4147 15.1886 52.9397 15.4336 53.3947L19.1436 59.7997C19.2836 60.0097 19.4936 60.1147 19.7036 60.1147C19.9136 60.1147 20.1236 60.0097 20.2636 59.7997L23.9736 53.3947C24.2186 52.9747 23.9036 52.4147 23.4136 52.4147H21.6286V49.0197L22.9236 49.0897L48.4036 50.1747V52.3797H46.6186C46.1286 52.3797 45.8136 52.9047 46.0586 53.3597L49.7686 59.7647C50.0136 60.1847 50.6436 60.1847 50.8886 59.7647L54.5986 53.3597C54.9136 52.9047 54.5986 52.3797 54.1086 52.3797ZM47.1786 24.8697L48.4736 24.9397V25.8497C48.4736 26.5847 48.4036 27.2847 48.2636 27.9147L46.9686 27.8447L21.7336 26.7947C21.6986 26.4797 21.6986 26.1647 21.6986 25.8497V23.8197L47.1786 24.8697ZM22.9586 46.4997L21.6636 46.4297V45.6247C21.6636 44.9597 21.6986 44.3647 21.8036 43.7697L23.0986 43.8397L48.4036 44.9247C48.4036 45.1697 48.4386 45.3797 48.4386 45.6247V47.5847L22.9586 46.4997Z" fill="#0C0C0C"/>
</svg>
